{
    "name": "boilerplate",
    "version": "0.1.0",
    "private": true,
    "dependencies": {
      "axios": "^0.20.0",
      "bootstrap": "^5.1.0",
      "js-cookie": "^2.2.1",
      "moment": "^2.27.0",
      "moment-precise-range-plugin": "^1.3.0",
      "polished": "^3.6.6",
      "prop-types": "^15.7.2",
      "react": "^16.13.1",
      "react-alert": "^7.0.2",
      "react-alert-template-basic": "^1.0.0",
      "react-dom": "^16.13.1",
      "react-helmet": "^6.1.0",
      "react-hook-form": "^6.7.0",
      "react-input-mask": "^2.0.4",
      "react-router-dom": "^5.2.0",
      "react-scripts": "3.4.3",
      "react-scroll": "^1.8.3",
      "react-toastify": "^6.0.8",
      "styled-components": "^5.1.1"
    },
    "scripts": {
      "start": "react-app-rewired start",
      "build": "react-app-rewired build",
      "lint": "eslint --ext .js,.jsx src"
    },
    "eslintConfig": {
      "extends": "react-app"
    },
    "browserslist": {
      "production": [
        ">0.2%",
        "not dead",
        "not op_mini all"
      ],
      "development": [
        "last 1 chrome version",
        "last 1 firefox version",
        "last 1 safari version"
      ]
    },
    "devDependencies": {
      "@babel/plugin-transform-runtime": "^7.11.5",
      "@babel/preset-env": "^7.11.5",
      "@babel/preset-react": "^7.10.4",
      "babel-eslint": "^10.0.3",
      "babel-plugin-module-resolver": "^4.0.0",
      "babel-plugin-transform-class-properties": "^6.24.1",
      "customize-cra": "^1.0.0",
      "eslint-config-airbnb": "^18.2.0",
      "eslint-config-prettier": "^6.11.0",
      "eslint-import-resolver-babel-module": "^5.1.2",
      "eslint-plugin-import": "^2.22.0",
      "prettier": "^2.1.1",
      "pretty-quick": "^3.0.0",
      "react-app-rewired": "^2.1.6"
    }
  }
  